<?xml version="1.0" standalone="no"?>
<!DOCTYPE svg PUBLIC "-//W3C//DTD SVG 1.1//EN" "http://www.w3.org/Graphics/SVG/1.1/DTD/svg11.dtd" >
<svg xmlns="http://www.w3.org/2000/svg">
<metadata>
This is a custom SVG webfont generated by Font Squirrel.
Copyright   :  Copyright 2011 no body
Foundry     : no body
</metadata>
<defs>
<font id="coderingRegular" horiz-adv-x="1024" >
<font-face units-per-em="2048" ascent="1638" descent="-410" />
<missing-glyph horiz-adv-x="500" />
<glyph unicode=" " />
<glyph unicode="a" d="M0 0h168v512h356l-2 250h-352l2 258l340 -2v-1018h168l2 1026l-90 2l-2 252l-508 -2l4 -256h-86v-1022z" />
<glyph unicode="&#xa0;" />
<glyph unicode="&#xaa;" d="M0 0h168v512h356l-2 250h-352l2 258l340 -2v-1018h168l2 1026l-90 2l-2 252l-508 -2l4 -256h-86v-1022z" />
<glyph unicode="&#x2013;" d="M204 512v204h616v-204h-616z" />
<glyph unicode="&#x2014;" horiz-adv-x="2048" d="M204 512v204h1640v-204h-1640z" />
<glyph unicode="&#xe000;" horiz-adv-x="500" d="M0 0v0v0v0v0z" />
</font>
</defs></svg> 